<?xml version="1.0" encoding="UTF-8" standalone="no"?>
<svg width="22px" height="24px" viewBox="0 0 22 24" version="1.1" xmlns="http://www.w3.org/2000/svg" xmlns:xlink="http://www.w3.org/1999/xlink">
    <!-- Generator: Sketch 3.8.3 (29802) - http://www.bohemiancoding.com/sketch -->
    <title>exam</title>
    <desc>Created with Sketch.</desc>
    <defs>
        <rect id="path-1" x="0" y="0" width="21.5909091" height="23.8636364"></rect>
        <mask id="mask-2" maskContentUnits="userSpaceOnUse" maskUnits="objectBoundingBox" x="0" y="0" width="21.5909091" height="23.8636364" fill="white">
            <use xlink:href="#path-1"></use>
        </mask>
    </defs>
    <g id="Page-1" stroke="none" stroke-width="1" fill="none" fill-rule="evenodd">
        <g id="Group">
            <use id="Rectangle-408" stroke="#000000" mask="url(#mask-2)" stroke-width="4" fill="#FFFFFF" xlink:href="#path-1"></use>
            <path d="M8.86758066,9.81496546 L8.88613118,9.81496546 L9.42409618,11.6490243 L8.28787699,11.6490243 L8.86758066,9.81496546 L8.86758066,9.81496546 L8.86758066,9.81496546 Z M9.79201478,12.9248914 L10.0455385,13.7744471 L11.9593336,13.7744471 L9.77346426,7.82142321 L7.96788057,7.82142321 L5.75882312,13.7744471 L7.61232898,13.7744471 L7.88440324,12.9248914 L9.79201478,12.9248914 L9.79201478,12.9248914 L9.79201478,12.9248914 Z M13.7772843,9.56347244 L13.7772843,11.0310262 L12.2978805,11.0310262 L12.2978805,12.3068933 L13.7772843,12.3068933 L13.7772843,13.7744471 L15.069637,13.7744471 L15.069637,12.3068933 L16.5490407,12.3068933 L16.5490407,11.0310262 L15.069637,11.0310262 L15.069637,9.56347244 L13.7772843,9.56347244 L13.7772843,9.56347244 L13.7772843,9.56347244 Z M10.915867,18.417867 C15.05727,18.417867 18.4210971,15.7695228 18.4210971,11.6658928 C18.4210971,7.55766224 15.05727,4.22077922 10.915867,4.22077922 C9.64670239,4.22077922 7.70198982,4.82497587 7.40672741,5.08873684 C7.10528151,5.34636384 7.20112585,5.94596001 7.75764137,5.68833301 C8.31261101,5.43070601 9.77346426,4.91545202 10.915867,4.91545202 C14.6708009,4.91545202 17.7208151,7.94103575 17.7208151,11.6658928 C17.7208151,15.3861493 14.6708009,17.7231942 10.915867,17.7231942 C7.16557069,17.7231942 4.10937294,15.3861493 4.10937294,11.6658928 C4.10937294,10.4866358 4.73699878,8.64184252 4.95496736,8.40721793 C5.17911945,8.17412684 4.61642042,7.5683967 4.39381421,7.98857406 C4.16966212,8.40721793 3.40909091,10.3302195 3.40909091,11.6658928 C3.40909091,15.7695228 6.77910157,18.417867 10.915867,18.417867 L10.915867,18.417867 L10.915867,18.417867 Z" id="Combined-Shape" fill="#000000"></path>
        </g>
    </g>
</svg>