<?xml version="1.0" encoding="UTF-8" standalone="no"?>
<svg width="83px" height="87px" viewBox="0 0 83 87" version="1.1" xmlns="http://www.w3.org/2000/svg" xmlns:xlink="http://www.w3.org/1999/xlink">
    <!-- Generator: Sketch 3.8.1 (29687) - http://www.bohemiancoding.com/sketch -->
    <title>ico_4</title>
    <desc>Created with Sketch.</desc>
    <defs>
        <path d="M33.1840568,5.67136275 L51.360996,0.756885362 L83.0350705,10.0604332 L122.491027,47.847019 L109.963158,85.2299385 C109.963158,85.2299385 68.7757599,107.826707 65.5498542,107.82671 C62.3239484,107.826713 16.5805736,102.128394 16.5805736,102.128394 C16.5805736,102.128394 4.62273525,86.7484949 4.62273514,73.2673188 C4.62273504,59.7861427 0.0688929536,21.0747578 0.0688930782,21.0747573 C0.0688932028,21.0747569 33.1840568,5.67136275 33.1840568,5.67136275 Z" id="path-1"></path>
        <polygon id="path-3" points="82.2426548 0.573529054 0.0037766787 0.573529054 0.0037766787 106.174657 82.2426548 106.174657 82.2426548 0.573529054"></polygon>
    </defs>
    <g id="Page-1" stroke="none" stroke-width="1" fill="none" fill-rule="evenodd">
        <g id="ico_4" transform="translate(-20.000000, -3.000000)">
            <mask id="mask-2" fill="white">
                <use xlink:href="#path-1"></use>
            </mask>
            <g id="Mask"></g>
            <g id="Page-1" mask="url(#mask-2)">
                <g transform="translate(20.352518, -16.819672)">
                    <mask id="mask-4" fill="white">
                        <use xlink:href="#path-3"></use>
                    </mask>
                    <g id="Clip-2" stroke="none" fill="none"></g>
                    <path d="M66.6553577,83.0372965 C65.6394311,82.001758 63.9739158,82.001758 62.9542125,83.0372965 C61.9345093,84.0614556 61.9345093,85.7190759 62.9542125,86.7584077 C63.9852458,87.7787735 65.6394311,87.7787735 66.6553577,86.7584077 C67.6750609,85.7190759 67.6750609,84.0614556 66.6553577,83.0372965 L66.6553577,83.0372965 Z M12.5015618,41.1036742 C12.7508226,41.3578174 13.1473739,41.3426446 13.4004114,41.1036742 L21.2030295,33.2517883 C21.456067,33.0166111 21.456067,32.5993611 21.2030295,32.3641839 C20.9537687,32.1100407 20.5534408,32.1100407 20.3192867,32.3490111 L12.5015618,40.200897 C12.2485244,40.4550402 12.2485244,40.8533242 12.5015618,41.1036742 L12.5015618,41.1036742 Z M80.7159325,76.3423311 L56.2997047,100.861457 C54.2640749,102.905982 50.9292676,102.905982 48.8936377,100.861457 L44.7053011,96.6548184 L40.2488202,101.1156 C40.2488202,101.1156 33.6396325,107.70815 24.6549139,105.841904 C24.5982637,105.826731 24.5227301,105.811559 24.4509732,105.796386 C24.065752,105.724316 23.6692007,105.602934 23.2688728,105.485345 C22.9440784,105.382929 22.6041773,105.27672 22.279383,105.143959 C21.9545886,105.02637 21.6335709,104.923954 21.3087765,104.77602 C20.6440811,104.480152 19.9793856,104.153938 19.2995835,103.767034 C19.1107495,103.649445 18.9030322,103.501511 18.6953149,103.36875 C18.1363664,103.012191 17.5585346,102.625286 16.9844794,102.181484 C16.7767621,102.018377 16.542608,101.840098 16.319784,101.661818 C15.5531182,101.039736 14.7864524,100.372136 14.0197867,99.6021205 C5.37496912,90.9195279 5.75641367,83.1852306 7.3652788,79.2896331 C7.38038551,79.2744604 8.6946697,74.4002221 10.2884281,68.5928611 C10.7454062,66.9314476 11.2325978,65.2131363 11.6895759,63.4948251 L1.53786357,53.2835803 C-0.512872967,51.2542281 -0.512872967,47.9048488 1.53786357,45.8603239 L25.9389846,21.3411982 C27.9746144,19.2928801 31.3094217,19.2928801 33.3450516,21.3411982 L47.5075967,35.5656291 L48.7916674,34.2607746 C50.4156393,32.6448793 53.0253242,32.6448793 54.6492961,34.2607746 L54.9740905,34.5869883 C56.5791789,36.2142632 56.5791789,38.8391448 54.9740905,40.4702129 L54.2338614,41.1947106 L49.5130131,45.9513603 L48.7765607,46.6758579 C47.1676956,48.2917533 44.5580106,48.306926 42.9340388,46.6758579 L42.6243511,46.3648171 C41.0003793,44.7375422 41.0003793,42.0974878 42.6243511,40.4815924 L43.3494734,39.7570947 L43.3494734,39.741922 L44.9394552,38.1411994 L32.9485003,26.0940547 L6.27381865,52.8852962 L12.8263562,59.4475003 C13.932923,55.4494869 14.9337429,51.9521735 15.4662546,50.29076 C17.1166632,45.0182376 21.3087765,45.2116899 23.2990862,48.4245147 C24.8475245,50.9014622 23.6389873,56.5305437 22.8421081,62.9030887 C22.6797109,64.162425 22.2680529,66.2335022 21.7657547,68.4297543 L48.3346893,95.1147867 L74.9904875,68.3387179 L73.0152846,66.3397112 L70.7001805,68.6801043 C69.0762087,70.2959996 66.4665237,70.2959996 64.8425519,68.6801043 L64.5177575,68.3538907 C62.9088924,66.7379953 62.9088924,64.1169068 64.5177575,62.4858388 L65.2391032,61.7461683 L70.7001805,56.265021 C72.3203757,54.6491256 74.9338374,54.6491256 76.5578092,56.265021 L76.8674969,56.5912346 C78.487692,58.2033368 78.487692,60.8433911 76.8674969,62.470666 L76.1423745,63.1837842 L76.1574813,63.1989569 L75.5834261,63.7603478 L80.7159325,68.9190747 C82.7515623,70.9635996 82.7515623,74.294013 80.7159325,76.3423311 L80.7159325,76.3423311 Z M62.6747383,49.6686782 L57.2136609,55.1536188 C55.6085725,56.7657209 55.6085725,59.4057753 57.2136609,61.0330502 L57.5233486,61.3440911 C59.1322137,62.9751592 61.7607821,62.9751592 63.3809772,61.3440911 L68.8420546,55.8629437 L69.5482935,55.138446 C71.1722654,53.5225507 71.1722654,50.8862895 69.5634003,49.2552214 L69.2386059,48.9441805 C67.6297408,47.3282852 65.0049491,47.3131124 63.3809772,48.9441805 L62.6747383,49.6686782 Z M50.6346866,47.0931079 L49.913341,47.8176056 C48.2893692,49.433501 48.2893692,52.0697621 49.913341,53.7008302 L50.2381354,54.0118711 C51.8470005,55.6429392 54.4566855,55.6429392 56.0806573,54.0118711 L61.5530647,48.5307237 L62.2593037,47.8024329 C63.8832755,46.1865375 63.8832755,43.5502763 62.2593037,41.9192082 L61.9345093,41.6081674 C60.3294208,39.9808925 57.7159592,39.9808925 56.095764,41.6081674 L50.6346866,47.0931079 Z M23.3292996,16.9373144 C26.3544193,13.8875964 31.3094217,13.8875964 34.3345414,16.9373144 L36.619432,14.6424395 C32.329125,10.3144193 25.334716,10.3144193 21.0406324,14.6424395 L23.3292996,16.9373144 Z M40.7057983,10.5382171 C34.1570375,3.97221975 23.5068035,3.97221975 16.954266,10.5533898 L19.2429333,12.8330919 C24.5227301,7.53022407 33.1373342,7.53022407 38.4209077,12.8330919 L40.7057983,10.5382171 Z M15.2887507,8.8616308 L13.0151901,6.58192867 C21.7355412,-2.19170032 35.9282998,-2.19170032 44.6448742,6.56675595 L42.3750903,8.87680353 C34.9085965,1.366304 22.7514678,1.366304 15.2887507,8.8616308 L15.2887507,8.8616308 Z" id="Fill-1" stroke="none" fill="#FFFFFF" fill-rule="evenodd" mask="url(#mask-4)"></path>
                </g>
            </g>
        </g>
    </g>
</svg>