<?xml version="1.0" encoding="UTF-8" standalone="no"?>
<svg width="271px" height="299px" viewBox="0 0 271 299" version="1.1" xmlns="http://www.w3.org/2000/svg" xmlns:xlink="http://www.w3.org/1999/xlink">
    <!-- Generator: Sketch 3.8.1 (29687) - http://www.bohemiancoding.com/sketch -->
    <title>ico1</title>
    <desc>Created with Sketch.</desc>
    <defs></defs>
    <g id="Page-1" stroke="none" stroke-width="1" fill="none" fill-rule="evenodd">
        <g id="ico1">
            <path d="M250.485027,35.7756791 C250.485027,55.5254643 234.283852,71.5513582 214.318057,71.5513582 C194.352262,71.5513582 178.151088,55.5254643 178.151088,35.7756791 C178.151088,16.0336359 194.352262,0 214.318057,0 C234.283852,0 250.485027,16.0336359 250.485027,35.7756791" id="Fill-1" fill="#D80505"></path>
            <path d="M18.5890866,247.681352 L121.74439,248.618131 L121.924403,248.618131 C128.34226,248.618131 134.30617,245.389726 137.765552,240.032278 C141.248413,234.620635 141.647572,227.815437 138.829977,222.039921 L112.720258,168.117046 L248.528363,194.455255 C249.749321,194.702998 250.970279,194.819128 252.167757,194.819128 C260.972744,194.819128 268.830704,188.679739 270.568222,179.822917 C272.556192,169.750604 265.927016,159.980228 255.744539,158.013766 L149.928172,137.482041 L185.946435,105.817352 L236.850995,127.533599 C238.557206,128.261345 240.365163,128.59425 242.141813,128.59425 C247.338712,128.59425 252.285157,125.598105 254.460967,120.573561 C257.395963,113.861267 254.273128,106.057353 247.456112,103.154111 L199.737,82.8081938 L165.550174,55.9203052 C163.350885,52.14222 159.343638,49.4789797 154.639818,49.2389784 L54.3882034,44.0983052 C46.9920151,43.6724964 40.6915584,49.3241401 40.292399,56.679019 C39.9010663,63.995188 45.6145239,70.22748 52.9872323,70.583611 L127.888314,74.423632 L61.6982985,134.942672 C59.5224886,136.909134 58.6693833,140.718187 59.7729415,143.443363 L64.108908,153.964711 C64.2967477,154.359552 64.5706806,154.777619 64.8446135,155.17246 C64.8759201,155.234396 64.8759201,155.296331 64.9072268,155.358267 L91.9639707,211.208895 L18.9569394,210.550826 L18.7690997,210.550826 C8.46922262,210.550826 0.094702517,218.741839 0.000782665421,228.938024 C-0.0931371862,239.188402 8.22659633,247.59619 18.5890866,247.681352" id="Fill-3" fill="#D80505"></path>
            <path d="M167.358132,194.912031 C162.889112,194.912031 159.288851,198.481083 159.288851,202.863043 L159.288851,258.024634 L126.44821,284.850587 C123.84976,286.971889 122.871428,290.509972 124.006293,293.684183 C125.164638,296.827426 128.193553,298.940986 131.582495,298.940986 L199.517854,298.940986 C202.820702,298.940986 205.818311,296.92033 207.007962,293.862249 C208.20544,290.81191 207.407122,287.32802 204.965205,285.121556 L175.396105,258.272377 L175.396105,202.863043 C175.396105,198.481083 171.788018,194.912031 167.358132,194.912031" id="Fill-7" fill="#000000"></path>
        </g>
    </g>
</svg>