<?xml version="1.0" encoding="UTF-8" standalone="no"?>
<svg width="171px" height="56px" viewBox="0 0 171 56" version="1.1" xmlns="http://www.w3.org/2000/svg" xmlns:xlink="http://www.w3.org/1999/xlink">
    <!-- Generator: Sketch 3.8.1 (29687) - http://www.bohemiancoding.com/sketch -->
    <title>nube1</title>
    <desc>Created with Sketch.</desc>
    <defs></defs>
    <g id="Page-1" stroke="none" stroke-width="1" fill="none" fill-rule="evenodd">
        <path d="M136.439713,24.6837566 C136.457014,24.3031414 136.498103,23.9268515 136.498103,23.5419112 C136.498103,10.5404442 125.957659,0 112.954029,0 C105.973202,0 99.7211655,3.05573401 95.4111316,7.88046338 C90.039268,2.99950678 82.9286852,0 75.1001239,0 C58.3984723,0 44.8585213,13.5377883 44.8585213,30.2416026 C44.8585213,30.9314675 44.9147486,31.6083569 44.9601629,32.2874089 C41.3140429,30.9876948 37.4019248,30.2416026 33.3059869,30.2416026 C17.5212718,30.2416026 4.21920528,40.7820467 0,55.2021702 L170.541532,55.2021702 C170.829156,53.6342953 171,52.0253313 171,50.3731156 C171,35.5550764 158.986835,23.5419112 144.168796,23.5419112 C141.480701,23.5419112 138.887761,23.9484773 136.439713,24.6837566 Z" id="nube1" fill="#C5C4C4"></path>
    </g>
</svg>