[
	{
		"id" : 1,
		"nombre": "Ciencias de la Salud",
		"imagen": "imagenes/facultad/facultades-economia.png",
		"uri": "ciencias-de-la-salud"
	},
	{
		"id" : 2,
		"nombre": "Ciencias de la Salud 2",
		"imagen": "imagenes/facultad/facultades-economia.png",
		"uri": "ciencias-de-la-salud-2"
	},
	{
		"id" : 3,
		"nombre": "Ciencias de la Salud",
		"imagen": "imagenes/facultad/facultades-economia.png",
		"uri": "ciencias-de-la-salud"
	},
	{
		"id" : 4,
		"nombre": "Ciencias de la Salud",
		"imagen": "imagenes/facultad/facultades-economia.png",
		"uri": "ciencias-de-la-salud"
	},
	{
		"id" : 5,
		"nombre": "Ciencias de la Salud",
		"imagen": "imagenes/facultad/facultades-economia.png",
		"uri": "ciencias-de-la-salud"
	},
	{
		"id" : 6,
		"nombre": "Ciencias de la Salud",
		"imagen": "imagenes/facultad/facultades-economia.png",
		"uri": "ciencias-de-la-salud"
	},
	{
		"id" : 7,
		"nombre": "Ciencias de la Salud",
		"imagen": "imagenes/facultad/facultades-economia.png",
		"uri": "ciencias-de-la-salud"
	},
	{
		"id" : 8,
		"nombre": "Ciencias de la Salud",
		"imagen": "imagenes/facultad/facultades-economia.png",
		"uri": "ciencias-de-la-salud"
	},
	{
		"id" : 9,
		"nombre": "Ciencias de la Salud",
		"imagen": "imagenes/facultad/facultades-economia.png",
		"uri": "ciencias-de-la-salud"
	},
	{
		"id" : 10,
		"nombre": "Ciencias de la Salud",
		"imagen": "imagenes/facultad/facultades-economia.png",
		"uri": "ciencias-de-la-salud"
	},
	{
		"id" : 11,
		"nombre": "Ciencias de la Salud",
		"imagen": "imagenes/facultad/facultades-economia.png",
		"uri": "ciencias-de-la-salud"
	},
	{
		"id" : 12,
		"nombre": "Ciencias de la Salud",
		"imagen": "imagenes/facultad/facultades-economia.png",
		"uri": "ciencias-de-la-salud"
	},
	{
		"id" : 13,
		"nombre": "Ciencias de la Salud",
		"imagen": "imagenes/facultad/facultades-economia.png",
		"uri": "ciencias-de-la-salud"
	},
	{
		"id" : 14,
		"nombre": "Ciencias de la Salud",
		"imagen": "imagenes/facultad/facultades-economia.png",
		"uri": "ciencias-de-la-salud"
	},
	{
		"id" : 15,
		"nombre": "Ciencias de la Salud",
		"imagen": "imagenes/facultad/facultades-economia.png",
		"uri": "ciencias-de-la-salud"
	},
	{
		"id" : 16,
		"nombre": "Ciencias de la Salud",
		"imagen": "imagenes/facultad/facultades-economia.png",
		"uri": "ciencias-de-la-salud"
	}
]