<?xml version="1.0" encoding="UTF-8" standalone="no"?>
<svg width="22px" height="26px" viewBox="0 0 22 26" version="1.1" xmlns="http://www.w3.org/2000/svg" xmlns:xlink="http://www.w3.org/1999/xlink">
    <!-- Generator: Sketch 3.8.1 (29687) - http://www.bohemiancoding.com/sketch -->
    <title>bus blanco</title>
    <desc>Created with Sketch.</desc>
    <defs></defs>
    <g id="Page-1" stroke="none" stroke-width="1" fill="none" fill-rule="evenodd">
        <g id="bus-blanco" fill="#FFFFFF">
            <path d="M0,18.4845545 C0,19.6728473 0.528015564,20.7291075 1.32003891,21.3892702 L1.32003891,23.7658557 C1.32003891,24.5580509 1.84805447,25.0861811 2.64007782,25.0861811 L3.96011673,25.0861811 C4.75214008,25.0861811 5.28015564,24.5580509 5.28015564,23.7658557 L5.28015564,22.4455304 L15.8404669,22.4455304 L15.8404669,23.7658557 C15.8404669,24.5580509 16.3684825,25.0861811 17.1605058,25.0861811 L18.4805447,25.0861811 C19.2725681,25.0861811 19.8005837,24.5580509 19.8005837,23.7658557 L19.8005837,21.3892702 C20.592607,20.7291075 21.1206226,19.6728473 21.1206226,18.4845545 L21.1206226,5.28130128 C21.1206226,0.66016266 16.3684825,0 10.5603113,0 C4.75214008,0 0,0.66016266 0,5.28130128 L0,18.4845545 L0,18.4845545 Z M4.62013619,19.8048798 C3.56410506,19.8048798 2.64007782,18.8806521 2.64007782,17.8243918 C2.64007782,16.7681316 3.56410506,15.8439038 4.62013619,15.8439038 C5.67616732,15.8439038 6.60019455,16.7681316 6.60019455,17.8243918 C6.60019455,18.8806521 5.67616732,19.8048798 4.62013619,19.8048798 L4.62013619,19.8048798 Z M16.5004864,19.8048798 C15.4444553,19.8048798 14.520428,18.8806521 14.520428,17.8243918 C14.520428,16.7681316 15.4444553,15.8439038 16.5004864,15.8439038 C17.5565175,15.8439038 18.4805447,16.7681316 18.4805447,17.8243918 C18.4805447,18.8806521 17.5565175,19.8048798 16.5004864,19.8048798 L16.5004864,19.8048798 Z M18.4805447,11.8829279 L2.64007782,11.8829279 L2.64007782,5.28130128 L18.4805447,5.28130128 L18.4805447,11.8829279 L18.4805447,11.8829279 Z" id="Shape"></path>
        </g>
    </g>
</svg>